# Integration parameters:
#	qmax	3.78909
#	Orientation Method	Monte Carlo (Mersenne Twister)
#	Orientation Iterations	1E6
#	Convergence	0.001
# 
# Program revision: 3, 3, 3, 0
# //////////////////////////////////////
# Multiple-Domain Composite Model
# Scale: 1
# Constant: 0
## //////////////////////////////////////
## Domain Model
## qMax = 100
## Grid size = 80
### //////////////////////////////////////
### PDB file: U:\Current D+\example files\Examples\5_CCl4\CCl4.pdb
### The atoms were centered to the center of mass
### Position (0,0,0)
### Rotation (0,0,0)
### N^3; N = 80
### qMax = 100
### Grid step size = 2.5
### 0 of 5 atoms are treated as having implicit hydrogen atoms (0 amino acids).
### Scale: 1

0.16620599999999999	781.52025046018457
0.16885800000000001	780.99665611929458
0.171511	780.46249690430193
0.17416300000000001	779.9182062904988
0.176815	779.36361586939984
0.17946699999999999	778.79875681968633
0.182119	778.22366051544407
0.18477199999999999	777.63813590137556
0.18742400000000001	777.04265615270219
0.19007599999999999	776.43703443842287
0.19272800000000001	775.82130289652298
0.19538	775.19549385153505
0.19803200000000001	774.55963981279569
0.200685	773.91352804909297
0.20333699999999999	773.25767852463753
0.20598900000000001	772.59188263842032
0.20864099999999999	771.9161736217485
0.21129300000000001	771.2305848821286
0.213946	770.53488591837834
0.21659800000000001	769.82963495801221
0.21925	769.11460555019346
0.22190199999999999	768.38983179031834
0.224554	767.6553479415528
0.22720599999999999	766.91118843316849
0.22985900000000001	766.15710180634915
0.232511	765.39369130700243
0.23516300000000001	764.62070942920775
0.237815	763.83819125026935
0.24046699999999999	763.04617200542145
0.24312	762.24438308631397
0.24577199999999999	761.43346448982959
0.24842400000000001	760.61315147804225
0.25107600000000002	759.78347990186899
0.25372800000000001	758.94448576215188
0.25638	758.09620520808846
0.25903300000000001	757.23834944315649
0.261685	756.37160162624673
0.26433699999999999	755.49567673091349
0.26698899999999998	754.6106114842413
0.26964100000000002	753.71644275391714
0.27229399999999998	752.81286525492442
0.27494600000000002	751.90059731741314
0.27759800000000001	750.97933734174558
0.28025	750.0491227428588
0.28290199999999999	749.10999106872771
0.28555399999999997	748.16197999887527
0.28820699999999999	747.2047648759027
0.29085899999999998	746.2391052595375
0.29351100000000002	745.2646800749435
0.29616300000000001	744.28152751316418
0.298815	743.28968588946793
0.30146800000000001	742.28881475566118
0.30412	740.52812378401666
0.30677199999999999	739.58497054243514
0.30942399999999998	738.63252412505494
0.31207600000000002	737.67083732367644
0.31472800000000001	736.69996305126358
0.31738100000000002	735.7195830876849
0.32003300000000001	734.7304896704569
0.322685	733.73236824413254
0.32533699999999999	732.72527218234518
0.32798899999999998	731.70925496790858
0.33064199999999999	730.68398206739676
0.33329399999999998	729.65028010764058
0.33594600000000002	728.60781809539367
0.33859800000000001	727.55664992660104
0.34125	726.49682959461541
0.34390199999999999	725.42841118786669
0.346555	724.35104118854213
0.34920699999999999	723.26558607532695
0.35185899999999998	722.17169572048499
0.35451100000000002	721.06942456968977
0.35716300000000001	719.95882715218409
0.35981600000000002	718.8395346289451
0.36246800000000001	717.71244550057122
0.36512	716.57719419257421
0.36777199999999999	715.4338355458284
0.37042399999999998	714.28242447348191
0.37307600000000002	713.1230159587268
0.37572899999999998	711.95522338394051
0.37838100000000002	710.779982239329
0.38103300000000001	709.59690902077557
0.383685	708.40605896952263
0.38633699999999999	707.2074873858237
0.38898899999999997	706.0012496267708
0.39164199999999999	704.78694196502977
0.39429399999999998	703.56553530458018
0.39694600000000002	702.33662888031813
0.39959800000000001	701.10027825505972
0.40225	699.85653903768866
0.40490300000000001	698.60499375831228
0.407555	697.34664162344848
0.41020699999999999	696.08106799930363
0.41285899999999998	694.80832865784816
0.41551100000000002	693.52847940656955
0.41816300000000001	692.24157608638689
0.42081600000000002	690.94718536018513
0.42346800000000001	689.64633894109443
0.42612	688.33860617682808
0.42877199999999999	687.02404302138257
0.43142399999999997	685.7027054518918
0.43407699999999999	684.37414743124134
0.43672899999999998	683.03942654584762
0.43938100000000002	681.69809931754367
0.44203300000000001	680.35022179582279
0.444685	678.99585004325263
0.44733699999999998	677.63504013348779
0.44999	676.26733142021271
0.45264199999999999	674.89381107670295
0.45529399999999998	674.89760220721507
0.45794600000000002	673.5986165726838
0.46059800000000001	672.29253960710935
0.46325100000000002	670.97894029316149
0.46590300000000001	669.65887435845957
0.468555	668.33191341188513
0.47120699999999999	666.99812286967654
0.47385899999999997	665.65756813592839
0.47651100000000002	664.31031459989958
0.47916399999999998	662.95591587500007
0.48181600000000002	661.59545836518191
0.48446800000000001	660.22849812983713
0.48712	658.8551004722915
0.48977199999999999	657.47533066781773
0.492425	656.08873012633319
0.49507699999999999	654.6964093872906
0.49772899999999998	653.29791215738783
0.50038099999999996	651.89330357376048
0.50303299999999995	650.48264873261633
0.50568500000000005	649.06601268669385
0.50833799999999996	647.64292292775781
0.51099000000000006	646.21451724998803
0.51364200000000004	644.78032526425807
0.51629400000000003	643.3404118244099
0.51894600000000002	641.89484172837626
0.52159900000000003	640.4431314738581
0.52425100000000002	638.98644015140349
0.52690300000000001	637.52428623106266
0.529555	636.05673426278156
0.53220699999999999	634.5838487285065
0.53485899999999997	633.10569403980719
0.53751199999999999	631.6217742257644
0.54016399999999998	630.13327224336604
0.54281599999999997	628.63969391963587
0.54546799999999995	627.14110336113026
0.54812000000000005	625.63756459236413
0.55077299999999996	624.12857185337248
0.55342499999999994	622.61532659239924
0.55607700000000004	621.09732470363917
0.55872900000000003	619.57462986063456
0.56138100000000002	618.04730564357294
0.56403300000000001	616.51541553705783
0.56668600000000002	614.97844275311365
0.56933800000000001	613.43760926621894
0.57199	611.89239977206751
0.57464199999999999	610.34287735100997
0.57729399999999997	608.78910497693244
0.57994699999999999	607.23055726744496
0.58259899999999998	605.66847192912724
0.58525099999999997	604.10232492300042
0.58790299999999995	602.532178775852
0.59055500000000005	600.95809589747
0.59320700000000004	599.38013857858789
0.59585999999999995	597.79777183356816
0.59851200000000004	596.21225061697908
0.60116400000000003	594.62304112062031
0.60381600000000002	593.0302051385828
0.60646800000000001	590.36942446650551
0.60912100000000002	588.82070399947065
0.61177300000000001	587.26808343732353
0.614425	585.7110513744293
0.61707699999999999	584.14967917230126
0.61972899999999997	582.58403804914008
0.62238099999999996	581.01419907714342
0.62503399999999998	579.43963890889631
0.62768599999999997	577.86161534231735
0.63033799999999995	576.27960626743084
0.63299000000000005	574.69368214581493
0.63564200000000004	573.10391327987236
0.63829400000000003	571.51036981025072
0.64094700000000004	569.91251874277691
0.64359900000000003	568.31163447053268
0.64625100000000002	566.70718504681986
0.64890300000000001	565.09923993985512
0.651555	563.48786844353037
0.65420800000000001	561.87253017832961
0.65686	560.25451184840153
0.65951199999999999	558.63327396622878
0.66216399999999997	557.00888510394373
0.66481599999999996	555.38141364726721
0.66746799999999995	553.75092779315094
0.67012099999999997	552.11687907558223
0.67277299999999995	550.48056717802172
0.67542500000000005	548.84144434344148
0.67807700000000004	547.19957799046688
0.68072900000000003	545.55503533746389
0.68338200000000004	543.90726181856644
0.68603400000000003	542.25756646228649
0.68868600000000002	540.60539526233242
0.69133800000000001	538.95081461378311
0.69399	537.29389070046773
0.69664199999999998	535.63468949283356
0.699295	533.97264986155426
0.70194699999999999	532.30909031561828
0.70459899999999998	530.64345010986824
0.70725099999999996	528.97579434012698
0.70990299999999995	527.30618787843503
0.71255599999999997	525.63406474720159
0.71520799999999995	523.9607499377463
0.71786000000000005	522.28567771382279
0.72051200000000004	520.60891203225151
0.72316400000000003	518.93051661617471
0.72581600000000002	517.25055495312643
0.72846900000000003	515.56845598114546
0.73112100000000002	513.88555080373771
0.73377300000000001	512.20126843306343
0.736425	510.51567139534723
0.73907699999999998	508.82882197190247
0.74173	507.14014546485214
0.74438199999999999	505.4509767113496
0.74703399999999998	503.76074095185862
0.74968599999999996	502.06949947015414
0.75233799999999995	500.37731329629071
0.75499000000000005	498.6842432049047
0.75764299999999996	496.98971084278463
0.76029500000000005	495.94798893742012
0.76294700000000004	494.29465865550975
0.76559900000000003	492.63961307127443
0.76825100000000002	490.98291989803857
0.77090400000000003	489.32402100981136
0.77355600000000002	487.66423420587438
0.77620800000000001	486.00300142036974
0.77886	484.34038932075424
0.78151199999999998	482.67646430763983
0.78416399999999997	481.01129251268225
0.78681699999999999	479.34431124388152
0.78946899999999998	477.67684278570482
0.79212099999999996	476.00832433067512
0.79477299999999995	474.33882091382736
0.79742500000000005	472.66839729101292
0.80007799999999996	470.99648758777079
0.80273000000000005	469.32441640758282
0.80538200000000004	467.65161761827852
0.80803400000000003	465.97815483933601
0.81068600000000002	464.30409140140472
0.81333800000000001	462.62949034443869
0.81599100000000002	460.95378270674536
0.81864300000000001	459.27829421588319
0.821295	457.60245548683366
0.82394699999999998	455.92632837853341
0.82659899999999997	454.24997445027134
0.82925199999999999	452.57282276466873
0.83190399999999998	450.89619863920137
0.83455599999999996	449.2195305794807
0.83720799999999995	447.54287892910952
0.83986000000000005	445.8663037236733
0.84251200000000004	444.18986468912618
0.84516500000000006	442.51298921687572
0.84781700000000004	440.83700056270141
0.85046900000000003	439.1613254059007
0.85312100000000002	437.48602221819232
0.85577300000000001	435.81114915398803
0.85842600000000002	434.13613278126303
0.86107800000000001	432.46229336722467
0.86373	430.78905664299481
0.86638199999999999	429.11647947917254
0.86903399999999997	427.44461842193618
0.87168599999999996	425.773529691698
0.87433899999999998	424.1026395333223
0.87699099999999997	422.43326315230399
0.87964299999999995	420.7648258124961
0.88229500000000005	419.09738241805019
0.88494700000000004	417.43098754094001
0.88759900000000003	415.76569541974283
0.89025200000000004	414.10093268129481
0.89290400000000003	412.43800791455919
0.89555600000000002	410.77634662732834
0.89820800000000001	409.11600171280509
0.90085999999999999	407.45702572508412
0.90351300000000001	405.79884613195691
0.906165	404.14276486348228
0.90881699999999999	402.48820815813986
0.91146899999999997	401.16841800571422
0.91412099999999996	399.5400311915547
0.91677299999999995	397.91234689557399
0.91942599999999997	396.28480914360449
0.92207799999999995	394.65870190894066
0.92473000000000005	393.03346825444544
0.92738200000000004	391.40916452557951
0.93003400000000003	389.78584673140801
0.93268700000000004	388.16295902861543
0.93533900000000003	386.54178020251209
0.93799100000000002	384.92175332673492
0.94064300000000001	383.30293305086599
0.94329499999999999	381.6853736813145
0.94594699999999998	380.06912918003206
0.9486	378.4536445004569
0.95125199999999999	376.84019078354572
0.95390399999999997	375.22821176137649
0.95655599999999996	373.61776000553255
0.95920799999999995	372.00888773706032
0.96186099999999997	370.40104109088861
0.96451299999999995	368.79548369667401
0.96716500000000005	367.19166035761401
0.96981700000000004	365.58962188123979
0.97246900000000003	363.9894187190489
0.97512100000000002	362.39110096547603
0.97777400000000003	360.79411677387111
0.98042600000000002	359.19971944517829
0.98307800000000001	357.60735567452878
0.98573	356.01707411816506
0.98838199999999998	354.42892307048072
0.991035	352.84235285110958
0.99368699999999999	351.25860710044486
0.99633899999999997	349.67713457951288
0.99899099999999996	348.09798212653158
1.0016400000000001	346.5229785537237
1.0043	344.94385697841375
1.00695	343.37313128708678
1.0096000000000001	341.80490562459801
1.0122500000000001	340.239224889436
1.0148999999999999	338.67613361153678
1.01756	337.10979247551558
1.0202100000000001	335.55202241041502
1.0228600000000001	333.99697333784201
1.0255099999999999	332.4446883058626
1.02817	330.88936827230037
1.0308200000000001	329.3427498095686
1.0334700000000001	327.79902245762815
1.0361199999999999	326.25822777376135
1.03877	324.72040694167868
1.0414300000000001	323.1798148104711
1.0440799999999999	321.64807534146195
1.0467299999999999	320.11943118020019
1.04938	318.59392201058103
1.05203	317.07158714097278
1.0546899999999999	315.54673910389135
1.0573399999999999	314.03088159916962
1.05999	312.51831420667128
1.06264	309.66346315794607
1.0652999999999999	308.16462789227398
1.06795	306.6740980593288
1.0706	305.18627614619049
1.07325	303.7012039725949
1.0759000000000001	302.21892299505464
1.07856	300.73389689673508
1.08121	299.2573321430894
1.08386	297.78368092117012
1.0865100000000001	296.31298322717709
1.08917	294.83974590205997
1.09182	293.375085304474
1.0944700000000001	291.91349617066618
1.0971200000000001	290.45501702791063
1.0997699999999999	288.99968603542089
1.10243	287.54206727261891
1.1050800000000001	286.0931578179696
1.1077300000000001	284.64750891779465
1.1103799999999999	283.20515725360241
1.11303	281.76613913691693
1.1156900000000001	280.32507939359772
1.1183399999999999	278.89284874117601
1.1209899999999999	277.46405847999563
1.12364	276.03874343729183
1.1263000000000001	274.61157945592362
1.1289499999999999	273.19333128302588
1.1315999999999999	271.77866070790992
1.13425	270.36760106984599
1.1369	268.96018533605292
1.1395599999999999	267.5511559762366
1.1422099999999999	266.15113951959586
1.14486	264.75486375497678
1.14751	263.3623601590171
1.1501699999999999	261.96842669940094
1.15282	260.58357490661041
1.15547	259.20258759164977
1.15812	257.8254947400647
1.1607700000000001	256.45232596506025
1.16343	255.07795118067776
1.16608	253.71273299085229
1.16873	252.35152559093777
1.1713800000000001	250.99435710439761
1.17404	249.63615697502095
1.17669	248.28716469952121
1.1793400000000001	246.94229357942828
1.1819900000000001	245.60157025112431
1.1846399999999999	244.26502098015175
1.1873	242.92765191495715
1.1899500000000001	241.5995440663871
1.1926000000000001	240.27568694383393
1.1952499999999999	238.95610533106668
1.1979	237.64082364262129
1.2005600000000001	236.32492713320948
1.2058599999999999	233.71611093572105
1.20851	232.41828234284327
1.2111700000000001	231.11999789980285
1.2138199999999999	228.3653604989176
1.2164699999999999	227.07780691735152
1.21912	225.79418476805617
1.22177	224.51451979956741
1.2244299999999999	223.23403109952349
1.2270799999999999	221.96237155009123
1.22973	220.69474448218861
1.23238	219.4311742848958
1.2350399999999999	218.16693997722703
1.23769	216.91157086476457
1.24034	215.66032984208957
1.24299	214.41323994036583
1.2456400000000001	213.17032385197649
1.2483	211.92693749103725
1.25095	210.6924517112144
1.2536	209.46220587228336
1.2562500000000001	208.23622131225855
1.2588999999999999	207.01451903148617
1.26156	205.79253390835584
1.2642100000000001	204.57947419011143
1.2668600000000001	203.37075780376068
1.2695099999999999	202.16640440062676
1.27217	200.96191342688576
1.2748200000000001	199.7663602442104
1.2774700000000001	198.57522705327395
1.2801199999999999	197.38853216196341
1.28277	196.20629354363061
1.2854300000000001	195.02409293760368
1.2880799999999999	193.85083642968505
1.2907299999999999	192.68208817545977
1.29338	191.51786481343564
1.2960400000000001	190.35381511179057
1.2986899999999999	189.19870734826941
1.3013399999999999	188.04817246001127
1.30399	186.90222575885031
1.30664	185.76088222668056
1.3092999999999999	184.61987574903671
1.3119499999999999	183.48779969026856
1.3146	182.36036982478228
1.31725	181.23759981963536
1.3199000000000001	180.11950301512323
1.32256	179.00189976750767
1.32521	177.89320583689928
1.32786	176.78922322026537
1.3305100000000001	175.68996395670587
1.33317	174.59131846453135
1.33582	173.50155866502769
1.33847	172.4165564414219
1.3411200000000001	171.33632254382871
1.3437699999999999	170.26086740246311
1.34643	169.18616996058284
1.3490800000000001	168.12032047328441
1.3517300000000001	167.05927915720989
1.3543799999999999	166.00305517047437
1.35704	164.94769896803911
1.3596900000000001	163.90115411332269
1.3623400000000001	162.85945220371136
1.3649899999999999	162.93157993085268
1.36764	161.89713838256165
1.3703000000000001	160.86327809255772
1.3729499999999999	159.83778203196121
1.3755999999999999	158.81676436991637
1.37825	157.80023411667756
1.3809100000000001	156.78438954049045
1.3835599999999999	155.77687706447801
1.3862099999999999	154.77387743180083
1.38886	153.77539856919904
1.39151	152.78144813427761
1.3941699999999999	151.78830847559263
1.39682	150.80345395174049
1.39947	149.82314924521353
1.40212	148.84740094241872
1.4047700000000001	147.8762153638643
1.40743	146.90595961456665
1.41008	145.94393465904969
1.41273	144.98648982121549
1.4153800000000001	144.0336303639944
1.41804	143.08179161397035
1.42069	142.13813500691077
1.42334	141.19907801468983
1.4259900000000001	140.26462485449261
1.4286399999999999	139.33477948425957
1.4313	138.40606289307505
1.4339500000000001	137.48546136467121
1.4366000000000001	136.56947796421807
1.4392499999999999	135.65811561987769
1.44191	134.74796410964436
1.4445600000000001	133.8458691039292
1.4472100000000001	132.94840241942759
1.4498599999999999	132.05556596823604
1.45251	131.16736141091241
1.4551700000000001	130.28046470286921
1.4578199999999999	129.40154540384339
1.4604699999999999	128.52726148336799
1.46312	127.65761360424756
1.46577	126.79260218248608
1.4684299999999999	125.92898947228196
1.4710799999999999	125.07326872695393
1.47373	124.22218421443785
1.47638	123.37573537260069
1.4790399999999999	122.53075351784204
1.48169	121.69359084888561
1.48434	120.86106071267872
1.48699	120.03316158558256
1.4896400000000001	119.20989170650471
1.4923	118.38816862138992
1.49495	117.57416845914535
1.4976	116.76479083824694
1.5002500000000001	115.96003305805962
1.50291	115.15688152671579
1.50556	114.36137180406163
1.5082100000000001	113.57047242081782
1.5108600000000001	112.784179755319
1.5135099999999999	112.00248995884566
1.51617	110.30657751835015
1.5188200000000001	109.52661980999798
1.5214700000000001	108.75108545743892
1.5241199999999999	107.97997134388588
1.52678	107.21038932994162
1.5294300000000001	106.4481222458531
1.5320800000000001	105.69026491923267
1.5347299999999999	104.93681349041564
1.53738	104.18776391605536
1.5400400000000001	103.4403102857473
1.5426899999999999	102.70006812897198
1.5453399999999999	101.96421458453796
1.54799	101.23274488140488
1.55064	100.50565406874968
1.5532999999999999	99.780218059473441
1.5559499999999999	99.061885934651684
1.5586	98.347916756187445
1.56125	97.638304861583606
1.5639099999999999	96.930391286185881
1.56656	96.229492656195646
1.56921	95.532933248221696
1.57186	94.840706701510314
1.5745100000000001	94.152806483065007
1.57717	93.466654511457321
1.57982	92.787402927273021
1.58247	92.112457020833475
1.5851200000000001	91.441809578404815
1.58778	90.772946783628484
1.59043	90.110890107666819
1.5930800000000001	89.453109222206152
1.5957300000000001	88.799596247397034
1.5983799999999999	88.150343139360459
1.60104	87.502915765149908
1.6036900000000001	86.862173604050227
1.6063400000000001	86.225666171002359
1.6089899999999999	85.593384775031055
1.61164	84.965320565987412
1.6143000000000001	84.339118320221772
1.6169500000000001	83.719477130654198
1.6195999999999999	83.104025597049556
1.62225	82.492754242016971
1.6249100000000001	81.883370373930717
1.6275599999999999	81.280446010729335
1.6302099999999999	80.681672435633985
1.63286	80.087039560497274
1.63551	79.49653714726216
1.6381699999999999	78.907949835272703
1.6408199999999999	78.325692524951151
1.64347	77.747534033061072
1.64612	77.173463532143614
1.6487799999999999	76.601326838969442
1.65143	76.035414582645842
1.65408	75.473556929792153
1.65673	74.915742481235256
1.6593800000000001	74.361959697830372
1.66204	73.810129923617794
1.66469	73.264390401557677
1.66734	72.737766990401681
1.6699900000000001	72.193626133665276
1.67265	71.651362592528059
1.6753	71.115041735385617
1.6779500000000001	70.582605752041729
1.6806000000000001	70.054042690834208
1.6832499999999999	69.529340507365262
1.68591	69.006528854209421
1.6885600000000001	68.489526379500973
1.6912100000000001	67.976348052847754
1.6938599999999999	67.466981465174371
1.69651	66.961414117995787
1.6991700000000001	66.457747067628318
1.7018200000000001	65.959754569059541
1.7044699999999999	65.465523237565208
1.70712	64.975040223534577
1.7097800000000001	64.486462865913566
1.7124299999999999	64.003451616690967
1.7150799999999999	63.524149573499606
1.71773	63.04854354677785
1.72038	62.576620263836787
1.7230399999999999	62.106606306279723
1.7256899999999999	61.642022134417282
1.72834	61.18108034555955
1.73099	60.723767341451421
1.7336499999999999	60.268364206143126
1.7363	59.818281223451528
1.73895	59.371785704503729
1.7416	58.928863737322601
1.7442500000000001	58.489501333457312
1.74691	58.052046533654654
1.74956	57.619774288003441
1.75221	57.191019135341897
1.7548600000000001	56.765766788714501
1.7575099999999999	56.344002888551614
1.76017	55.924141112212993
1.7628200000000001	55.509323766946707
1.7654700000000001	55.097951306493968
1.7681199999999999	54.690009088460791
1.77078	54.283962336056632
1.7734300000000001	53.882849206878042
1.7760800000000001	53.485121928180718
1.7787299999999999	53.090765587626059
1.78138	52.699765207498359
1.7840400000000001	52.310649187954112
1.7866899999999999	51.926328059705732
1.7893399999999999	51.545317517401671
1.79199	51.16760232989563
1.7946500000000001	50.791760434858602
1.7972999999999999	50.420602310085265
1.7999499999999999	50.052693424631869
1.8026	49.688018307468177
1.80525	49.326561429798197
1.8079099999999999	48.966961348973868
1.8105599999999999	48.611906133953539
1.81321	48.260022174814083
1.81586	47.911293720222133
1.8185100000000001	47.565704965469081
1.82117	47.2071843414707
1.82382	46.860701151224283
1.82647	46.517348485178978
1.8291200000000001	46.177110396530331
1.83178	45.838704547905152
1.83443	45.504659318553898
1.83708	45.173680680639812
1.8397300000000001	44.84575263177549
1.8423799999999999	44.520859156641478
1.84504	44.197775301569692
1.8476900000000001	43.878914177948168
1.8503400000000001	43.563039447763792
1.8529899999999999	43.250135047793833
1.85565	42.939020855404323
1.8583000000000001	42.632019939616633
1.8609500000000001	42.327941039305202
1.8635999999999999	42.026768049665641
1.86625	41.728484856513283
1.8689100000000001	41.431966005866613
1.8715599999999999	41.139424780262843
1.8742099999999999	40.849724895469727
1.87686	40.562850203844683
1.8795200000000001	40.277717904192038
1.8821699999999999	39.996455635649802
1.8848199999999999	39.717970014077963
1.88747	39.442244865053183
1.89012	39.169264008524038
1.8927799999999999	38.897996583861712
1.8954299999999999	38.630465954785201
1.89808	38.365630987463327
1.90073	38.103475483631243
1.9033800000000001	37.843983241566633
1.90604	37.586173822209851
1.90869	37.331969383927451
1.91134	37.080379524752544
1.9139900000000001	36.831388033563243
1.91665	36.584053721330534
1.9193	36.340219980394203
1.92195	36.098935907359269
1.9246000000000001	35.860185288934531
1.9272499999999999	35.623951912433903
1.92991	35.3893422736123
1.9325600000000001	35.158104093623038
1.9352100000000001	34.929334464617789
1.9378599999999999	34.703017180998842
1.94052	34.478295798971082
1.9431700000000001	34.256843702787975
1.9458200000000001	34.037795293686791
1.9484699999999999	33.821134380744006
1.95112	33.606844777903291
1.9537800000000001	33.394114991677753
1.9564299999999999	33.184528268391048
1.9590799999999999	32.977264270109494
1.96173	32.772306835153401
1.96438	32.569639809164059
1.9670399999999999	32.368495133330747
1.9696899999999999	32.17036898464665
1.97234	32.161272976813045
1.97499	31.962569156023029
1.9776499999999999	31.765397863376226
1.9802999999999999	31.571225159869982
1.98295	31.37928919464062
1.9856	31.189573678590719
1.9882500000000001	31.002062367226241
1.99091	30.816043850865881
1.99356	30.632900558938992
1.99621	30.451912945168331
1.9988600000000001	30.273064943696376
2.0015200000000002	30.095677650410387
2.0041699999999998	29.921068777600887
2.0068199999999998	29.748551527381323
2.0094699999999999	29.578110012712209
2.0121199999999999	29.409728391257769
2.01478	29.242767028026961
2.0174300000000001	29.078465469260728
2.0200800000000001	28.916176485948117
2.0227300000000001	28.755884414960327
2.0253899999999998	28.596979971516681
2.0280399999999998	28.440642303491536
2.0306899999999999	28.286254768953206
2.0333399999999999	28.133801884420812
2.03599	27.983268211365928
2.0386500000000001	27.834081075105559
2.0413000000000001	27.687346786701717
2.0439500000000002	27.542485606614811
2.0466000000000002	27.399482276679429
2.0492499999999998	27.258321583883657
2.0519099999999999	27.118466016588389
2.0545599999999999	26.980951950340568
2.05721	26.845235096772985
2.05986	26.711300424132972
2.0625200000000001	26.578637528864824
2.0651700000000002	26.448228888514983
2.0678200000000002	26.319557550331606
2.0704699999999998	26.192608664668821
2.0731199999999999	26.067367427510291
2.07578	25.943356047913976
2.07843	25.821492183484089
2.08108	25.701291774655928
2.0837300000000001	25.58274020074208
2.0863900000000002	25.465384766354688
2.0890399999999998	25.350093268844432
2.0916899999999998	25.236406965652765
2.0943399999999999	25.124311420529359
2.0969899999999999	25.013792243476548
2.09965	24.90442687199733
2.1023000000000001	24.797023259955402
2.1049500000000001	24.691153070607736
2.1076000000000001	24.586802099941835
2.1102500000000002	24.48395619060727
2.1129099999999998	24.382221566385141
2.1155599999999999	24.282349041328168
2.1182099999999999	24.183939333597561
2.12086	24.086978473557473
2.1235200000000001	23.937475903797385
2.1261700000000001	23.842171294415337
2.1288200000000002	23.748348742194473
2.1314700000000002	23.655993878535181
2.1341199999999998	23.565092411755099
2.1367799999999999	23.475295240996594
2.1394299999999999	23.387263349742121
2.14208	23.300642385517111
2.14473	23.215418361221257
2.1473900000000001	23.131263585684515
2.1500400000000002	23.048796921230164
2.1526900000000002	22.967685633748228
2.1553399999999998	22.887916035422755
2.1579899999999999	22.80947451237838
2.16065	22.732058951679321
2.1633	22.656237916019197
2.16595	22.581704504073635
2.1686000000000001	22.508445394835341
2.1712600000000002	22.43617802052454
2.1739099999999998	22.365432526944751
2.1765599999999998	22.295921756704452
2.1792099999999999	22.227632676693851
2.1818599999999999	22.160552324951183
2.18452	22.094421438124819
2.1871700000000001	22.029724380154128
2.1898200000000001	21.966197540495429
2.1924700000000001	21.903828239077136
2.1951200000000002	21.84260386550346
2.1977799999999998	21.782287245395821
2.2004299999999999	21.723319376152929
2.2030799999999999	21.66545897208524
2.20573	21.608693698906929
2.2083900000000001	21.552803203696591
2.2110400000000001	21.4981954794413
2.2136900000000002	21.444646246031748
2.2163400000000002	21.392143440830729
2.2189899999999998	21.34067506836983
2.2216499999999999	21.290040759822435
2.2242999999999999	21.240609325141868
2.22695	21.192176692764448
2.2296	21.144731133498887
2.2322600000000001	21.09808745760396
2.2349100000000002	21.052584735299455
2.2375600000000002	21.008034249251601
2.2402099999999998	20.964424532412011
2.2428599999999999	20.921744182578141
2.24552	20.879825992871016
2.24817	20.838973829045031
2.25082	20.799017170059468
2.2534700000000001	20.759944870892308
2.2561200000000001	20.72174585015604
2.2587799999999998	20.684269815595741
2.2614299999999998	20.647787552729977
2.2640799999999999	20.61214566261722
2.2667299999999999	20.577333316315283
2.26939	20.543213006875845
2.2720400000000001	20.510030540204532
2.2746900000000001	20.515741498534055
2.2773400000000001	20.484581593055804
2.2799900000000002	20.454244432763154
2.2826499999999998	20.424609168020982
2.2852999999999999	20.395887716743619
2.2879499999999999	20.367956360779008
2.2906	20.340804403544325
2.2932600000000001	20.314323117446712
2.2959100000000001	20.288701050656211
2.2985600000000002	20.263826763932929
2.3012100000000002	20.239689899279707
2.3038599999999998	20.216280181810841
2.3065199999999999	20.193503131145196
2.3091699999999999	20.171519861255391
2.31182	20.150233369137307
2.31447	20.129633706938776
2.3171200000000001	20.109711007075184
2.3197800000000002	20.090384070574867
2.3224300000000002	20.071788473623968
2.3250799999999998	20.053840676100307
2.3277299999999999	20.036531126232092
2.33039	20.019788582357709
2.33304	20.003729501536455
2.33569	19.988280440900951
2.3383400000000001	19.973432155752739
2.3409900000000001	19.959175476750328
2.3436499999999998	19.945450800540947
2.3462999999999998	19.932352271721498
2.3489499999999999	19.919818254273501
2.3515999999999999	19.907839875305172
2.35426	19.896366221380855
2.3569100000000001	19.885474805330048
2.3595600000000001	19.875112810977981
2.3622100000000001	19.86527165362093
2.3648600000000002	19.855942819269686
2.3675199999999998	19.847085506121516
2.3701699999999999	19.838757910240563
2.3728199999999999	19.83091748350494
2.37547	19.823555990086909
2.3781300000000001	19.816640140986181
2.3807800000000001	19.81021380989878
2.3834300000000002	19.804242082045537
2.3860800000000002	19.798716991976278
2.3887299999999998	19.793630640581522
2.3913899999999999	19.788958433153141
2.3940399999999999	19.784727706915991
2.39669	19.780912386449863
2.39934	19.777504833593223
2.4019900000000001	19.774497474211472
2.4046500000000002	19.771873665307002
2.4073000000000002	19.769645664012906
2.4099499999999998	19.76779548569413
2.4125999999999999	19.76631580806594
2.41526	19.765195836487408
2.41791	19.764436770128569
2.42056	19.764026579820268
2.4232100000000001	19.763958188087056
2.4258600000000001	19.605294252235201
2.4285199999999998	19.60577936726725
2.4311699999999998	1.#QNAN
2.4338199999999999	19.607858992352064
2.4364699999999999	19.609439915129343
2.43913	19.61137985711888
2.4417800000000001	19.613657056810016
2.4444300000000001	19.61627107360588
2.4470800000000001	19.619214908099
2.4497300000000002	19.62248163655001
2.4523899999999998	19.626078520069129
2.4550399999999999	19.629971718777099
2.4576899999999999	19.634167462228248
2.46034	19.638659122793655
2.46299	19.643440145113622
2.4656500000000001	19.648523682100496
2.4683000000000002	19.653865078807069
2.4709500000000002	19.659476574358081
2.4735999999999998	19.665351896109382
2.4762599999999999	19.671508463711511
2.4789099999999999	19.677893832667017
2.48156	19.684524598405119
2.48421	19.691394760586377
2.4868600000000001	19.698498385290648
2.4895200000000002	19.705857693049342
2.4921700000000002	19.713411529619776
2.4948199999999998	19.721181397674652
2.4974699999999999	19.729161622971688
2.50013	19.737377862006223
2.50278	19.745762772990677
2.50543	19.754341375394048
2.5080800000000001	19.763108244855889
2.5107300000000001	19.772058017930163
2.5133899999999998	19.781220164123063
2.5160399999999998	19.790520535346655
2.5186899999999999	19.799988060003791
2.5213399999999999	19.809617612671332
2.524	19.819441347084975
2.5266500000000001	19.8293803749416
2.5293000000000001	19.83946638172138
2.5319500000000001	19.849694470842401
2.5346000000000002	19.860059801478243
2.5372599999999998	19.870597447153223
2.5399099999999999	19.881223431697073
2.5425599999999999	19.891972446768349
2.54521	19.902839869291107
2.54786	19.913821129227983
2.5505200000000001	19.924953761671603
2.5531700000000002	19.936149583116652
2.5558200000000002	19.947445828254441
2.5584699999999998	19.958838134133831
2.5611299999999999	19.970365692640808
2.5637799999999999	19.981937554479099
2.56643	19.993592672939009
2.56908	20.005326883930252
2.5717300000000001	20.017136071779188
2.5743900000000002	20.029061128486472
2.5770400000000002	20.247932824117655
2.5796899999999998	20.263628698673436
2.5823399999999999	20.279359439395201
2.585	20.2951806213634
2.58765	20.310969383085151
2.5903	20.32678131657666
2.5929500000000001	20.342612653408672
2.5956000000000001	20.358459686266023
2.5982599999999998	20.374378632073707
2.6009099999999998	20.390246201061689
2.6035599999999999	20.406118690339369
2.6062099999999999	20.421992630021094
2.60886	20.437864607735825
2.6115200000000001	20.453791127850319
2.6141700000000001	20.469649132366509
2.6168200000000001	20.485495263739551
2.6194700000000002	1.#QNAN
2.6221299999999998	20.517198837557089
2.6247799999999999	20.532990344363679
2.6274299999999999	20.548757531875303
2.63008	20.564497423321328
2.63273	20.580207093291406
2.6353900000000001	20.595942757690359
2.6380400000000002	20.611583269799944
2.6406900000000002	20.627185075436444
2.6433399999999998	20.642745448291048
2.6459999999999999	1.#QNAN
2.6486499999999999	1.#QNAN
2.6513	20.689209517897581
2.65395	20.704577649082399
2.6566000000000001	20.71989141590343
2.6592600000000002	20.735205834352978
2.6619100000000002	1.#QNAN
2.6645599999999998	20.765539281917984
2.6672099999999999	20.780611319174639
2.6698599999999999	20.795617187780795
2.67252	20.810610892684849
2.67517	20.825477503369168
2.6778200000000001	20.840271369549821
2.6804700000000001	20.854990383482928
2.6831299999999998	20.869687582091839
2.6857799999999998	20.884250424994111
2.6884299999999999	20.898732321201681
2.6910799999999999	1.#QNAN
2.69373	20.927445503197681
2.6963900000000001	20.941726519246281
2.6990400000000001	1.#QNAN
2.7016900000000001	20.96991342571614
2.7043400000000002	1.#QNAN
2.7069999999999999	20.99778404662327
2.7096499999999999	21.011550456617531
2.7122999999999999	21.025219646375131
2.71495	21.038789983021577
2.7176	21.052259866549527
2.7202600000000001	21.065677978920416
2.7229100000000002	21.078941891553114
2.7255600000000002	21.092100737732352
2.7282099999999998	20.996945028211549
2.7308699999999999	21.013152653354801
2.7335199999999999	21.029181138288127
2.73617	21.045090014165098
2.73882	21.06087770465578
2.7414700000000001	21.076542676751128
2.7441300000000002	21.092141847418521
2.7467800000000002	21.107556476872752
2.7494299999999998	21.122844037136382
2.7520799999999999	21.138003162201052
2.7547299999999999	21.153032526185072
2.75739	1.#QNAN
2.76004	21.182752333027761
2.7626900000000001	21.197384344407791
2.7653400000000001	21.211881675722328
2.7679999999999998	21.226297128408135
2.7706499999999998	21.240521214336361
2.7732999999999999	21.25460732202766
2.7759499999999999	21.268554424896536
2.7786	21.282361531062126
2.7812600000000001	21.29607898502076
2.7839100000000001	21.309602720980479
2.7865600000000001	21.322983683785477
2.7892100000000002	21.336221014785657
2.7918699999999999	21.349363019662825
2.7945199999999999	1.#QNAN
2.7971699999999999	21.37511113571011
2.79982	21.387765427112221
2.80247	21.400272258041767
2.8051300000000001	21.412677308255571
2.8077800000000002	21.424886657922109
2.8104300000000002	21.436946603929016
2.8130799999999998	21.448856555330838
2.8157299999999998	21.460615948287906
2.81839	21.472267763641721
2.82104	21.483723881065309
2.82369	21.495027904368008
2.8263400000000001	21.506179373245281
2.8290000000000002	21.517219065446906
2.8316499999999998	21.528063563013976
2.8342999999999998	21.538754269750783
2.8369499999999999	21.549290821150521
2.8395999999999999	1.#QNAN
2.84226	21.569938413004081
2.84491	21.580009950783211
2.8475600000000001	21.589926097236976
2.8502100000000001	21.59968659721266
2.8528699999999998	21.609327164424229
2.8555199999999998	21.618775098232366
2.8581699999999999	21.628066740836175
2.8608199999999999	21.637201916689929
2.86347	21.646180469078928
2.8661300000000001	21.655035252434949
2.8687800000000001	21.663699568817051
2.8714300000000001	21.672206900148439
2.8740800000000002	21.680557161054569
2.8767399999999999	21.688780902755227
2.8793899999999999	21.696816240376879
2.8820399999999999	21.619008083909041
2.88469	21.629423091132175
2.88734	21.639660163749443
2.8900000000000001	21.6497569498061
2.8926500000000002	21.659637584755
2.8953000000000002	21.669340437695848
2.8979499999999998	21.67886560829508
2.9005999999999998	21.688213219766755
2.90326	21.697417687088009
2.90591	21.706409973096683
2.90856	21.715225206597097
2.9112100000000001	21.723863600029304
2.9138700000000002	21.732356983990428
2.9165199999999998	21.740641753340086
2.9191699999999998	21.748750445368657
2.9218199999999999	21.756683353893123
2.9244699999999999	21.76444079186718
2.92713	21.772051372104585
2.9297800000000001	21.779458223169222
2.9324300000000001	21.78669065415902
2.9350800000000001	21.79374905003737
2.9377399999999998	21.800659464540111
2.9403899999999998	21.807370359250179
2.9430399999999999	21.813908474801501
2.9456899999999999	21.820274261026182
2.94834	21.826468182880362
2.9510000000000001	21.832513122611751
2.9536500000000001	21.838364125073483
2.9563000000000001	21.844044746536422
2.9589500000000002	21.849555508343727
2.9615999999999998	21.854896944905864
2.9642599999999999	21.860088803822386
2.9669099999999999	21.865092609703847
2.96956	21.869928770213242
2.97221	21.874597868157977
2.9748700000000001	21.879117174017189
2.9775200000000002	21.883453314672217
2.9801700000000002	21.887624208841149
2.9828199999999998	21.891630481689521
2.9854699999999998	21.895472768056823
2.98813	21.899165286379368
2.99078	21.90268092856904
2.99343	21.906034545855348
2.9960800000000001	21.909226808331368
2.9987400000000002	21.912269530554514
3.0013899999999998	21.915140522773143
3.0040399999999998	21.917852219548912
3.0066899999999999	21.920405320898084
3.0093399999999999	21.922800533515606
3.012	21.925046719120456
3.0146500000000001	21.927127710506589
3.0173000000000001	21.929052973008748
3.0199500000000001	21.930823237025937
3.0226099999999998	21.932445045036296
3.0252599999999998	21.933906945823065
3.0279099999999999	21.935216072134168
3.0305599999999999	21.936373173450875
3.03321	22.084827125226219
3.0358700000000001	22.088192280844488
3.0385200000000001	22.091355114572817
3.0411700000000002	22.094329543076856
3.0438200000000002	1.#QNAN
3.0464699999999998	22.099716876522976
3.0491299999999999	22.102140419709539
3.0517799999999999	22.104369852232189
3.05443	22.106415601302245
3.05708	22.108278644148008
3.0597400000000001	22.109965970033088
3.0623900000000002	22.11146589294972
3.0650400000000002	22.112786105585641
3.0676899999999998	22.113927624293108
3.0703399999999998	22.114891474303107
3.073	22.115681326783722
3.07565	22.116292288234764
3.0783	22.11672871046239
3.0809500000000001	22.116991650794041
3.0836100000000002	22.117082190138095
3.0862599999999998	22.117000722481951
3.0889099999999998	22.116748990735672
3.0915599999999999	22.11632807899942
3.0942099999999999	22.1157390772604
3.09687	22.114979913383991
3.0995200000000001	22.114057399674529
3.1021700000000001	22.11297010233525
3.1048200000000001	22.11171913184635
3.1074700000000002	22.110305603058368
3.1101299999999998	1.#QNAN
3.1127799999999999	22.106988499653621
3.1154299999999999	22.105093425860375
3.11808	22.103040295392027
3.1207400000000001	1.#QNAN
3.1233900000000001	22.098455175538589
3.1260400000000002	22.095934098715272
3.1286900000000002	22.093259514334381
3.1313399999999998	22.090432564011508
3.1339999999999999	22.087442867667097
3.1366499999999999	22.084314052488857
3.1393	22.081036309439021
3.14195	22.077610785251121
3.1446100000000001	22.074024871233632
3.1472600000000002	22.070306680610976
3.1499100000000002	22.066444156510464
3.1525599999999998	22.062438446988441
3.1552099999999998	22.058290699870206
3.15787	22.053985613614223
3.16052	22.049556707617018
3.16317	22.044989208297011
3.1658200000000001	22.040284260432827
3.1684700000000001	22.035443007532763
3.1711299999999998	22.030447558167783
3.1737799999999998	22.025336616078881
3.1764299999999999	22.020092794217138
3.1790799999999999	22.014717229090159
3.18174	22.009190031054235
3.1843900000000001	22.048474030993663
3.1870400000000001	22.044578029371309
3.1896900000000001	1.#QNAN
3.1923400000000002	22.036303701365995
3.1949999999999998	22.031911174308537
3.1976499999999999	22.027377578818992
3.2002999999999999	22.022688014419025
3.20295	22.017843798690617
3.2056100000000001	22.012827104775699
3.2082600000000001	22.007676979560248
3.2109100000000002	22.00237617740455
3.2135600000000002	21.996926026120157
3.2162099999999998	21.991327855430288
3.2188699999999999	21.985561041878302
3.2215199999999999	21.979670281959528
3.22417	21.973635505821644
3.22682	21.967458048365561
3.2294800000000001	21.96111513463697
3.2321300000000002	21.954655795971856
3.2347800000000002	21.948057788951186
3.2374299999999998	21.941322449851985
3.2400799999999998	21.93445111472651
3.24274	21.927418428116795
3.24539	21.920278606510209
3.24804	21.913006798530478
3.2506900000000001	21.905604337155111
3.2533400000000001	21.898072554067046
3.2559999999999998	21.890383633917239
3.2586499999999998	21.882596720798286
3.2612999999999999	21.874684476228222
3.2639499999999999	21.866648224698164
3.26661	21.85845826929549
3.2692600000000001	21.850177512521981
3.2719100000000001	21.841776712794257
3.2745600000000001	21.833257184357826
3.2772100000000002	21.824620238447448
3.2798699999999998	21.815833934466699
3.2825199999999999	21.806965643646159
3.2851699999999999	21.797983854174287
3.28782	21.788889863524101
3.2904800000000001	21.779650021440094
3.2931300000000001	21.770335094091418
3.2957800000000002	21.760911839118162
3.2984300000000002	21.751381537658496
3.3010799999999998	21.741745466394207
3.3037399999999999	21.731967944237709
3.3063899999999999	21.722123757713057
3.30904	21.712177608022937
3.31169	21.702130752598897
3.3143400000000001	21.691984443729549
3.3170000000000002	21.68170108546316
3.3196500000000002	21.671359241804456
3.3222999999999998	21.660921674107616
3.3249499999999999	21.650389612829372
3.32761	21.639724011995867
3.33026	21.629006286773421
3.33291	21.618197728990971
3.3355600000000001	21.546830748445014
3.3382100000000001	21.537790283385796
3.3408699999999998	21.528597633893721
3.3435199999999998	21.519323239764702
3.3461699999999999	21.50993408016372
3.3488199999999999	21.500431471541511
3.35148	21.490780236541699
3.3541300000000001	21.481054259132065
3.3567800000000001	21.471218779940841
3.3594300000000001	21.46127511008595
3.3620800000000002	21.45122455889652
3.3647399999999998	21.441029910438498
3.3673899999999999	21.430769125528663
3.3700399999999999	21.420405379688049
3.37269	21.409939973331134
3.3753500000000001	21.399334144955098
3.3780000000000001	21.38866893664752
3.3806500000000002	21.37790595737339
3.3833000000000002	21.367046495952579
3.3859499999999998	21.356091837910455
3.3886099999999999	1.#QNAN
3.3912599999999999	21.333859840537496
3.39391	1.#QNAN
3.39656	21.311303930103019
3.3992100000000001	21.299892113066033
3.4018700000000002	21.288349181570684
3.4045200000000002	21.276763186795815
3.4071699999999998	21.265092152458248
3.4098199999999999	21.253337327760494
3.41248	21.241455133094178
3.41513	21.229536151788842
3.41778	21.217537103531555
3.4204300000000001	21.205459217853186
3.4230800000000001	1.#QNAN
3.4257399999999998	1.#QNAN
3.4283899999999998	21.168718169922073
3.4310399999999999	21.156336846810664
3.4336899999999999	21.143882757804608
3.43635	21.131309698685829
3.4390000000000001	1.#QNAN
3.4416500000000001	21.106047907528691
3.4443000000000001	21.093314405624508
3.4469500000000002	21.080514064574327
3.4496099999999998	21.067599376436949
3.4522599999999999	21.054668607352816
3.4549099999999999	21.04167448212727
3.45756	21.028618147291247
3.46021	21.01550074273252
3.4628700000000001	21.002273563710506
3.4655200000000002	20.989037192588263
3.4681700000000002	20.975743134950477
3.4708199999999998	20.962392503290246
3.4734799999999999	20.948935710354231
3.4761299999999999	20.935475036847041
3.47878	20.92196108845712
3.48143	20.908394949132056
3.4840800000000001	20.894777695529637
3.4867400000000002	20.767764030742423
3.4893900000000002	20.754868770825471
3.4920399999999998	20.741904853171672
3.4946899999999999	20.728873473909552
3.49735	20.715726276594495
3.5	1.#QNAN
3.50265	20.689336443411161
3.5053000000000001	20.6760468729208
3.5079500000000001	20.66269577100444
3.5106099999999998	20.649233588790288
3.5132599999999998	20.635762718351064
3.5159099999999999	20.622233827711124
3.5185599999999999	20.60864807696122
3.52122	20.594955040341489
3.5238700000000001	20.581258827365669
3.5265200000000001	20.567509210697313
3.5291700000000001	20.553707331248649
3.5318200000000002	20.539854324861576
3.5344799999999998	20.525898764775501
3.5371299999999999	20.511946708924714
3.5397799999999999	20.497946906386161
3.54243	20.483900471640343
3.54508	20.469808513577217
3.5477400000000001	20.455618707837417
3.5503900000000002	20.441438845549545
3.5530400000000002	20.427216756210353
3.5556899999999998	20.412953525366198
3.5583499999999999	20.398596183298682
3.5609999999999999	20.384253756651855
3.56365	20.369873412441741
3.5663	20.355456211429601
3.5689500000000001	20.341003207976296
3.5716100000000002	20.326460714674678
3.5742600000000002	20.311939118166634
3.5769099999999998	20.297384847000561
3.5795599999999999	20.282798929131499
3.58222	20.268127172249955
3.58487	20.253480907821466
3.58752	20.238806043385146
3.5901700000000001	20.22410357933796
3.5928200000000001	20.209374509028915
3.5954799999999998	20.194564093339377
3.5981299999999998	20.179784670915659
3.6007799999999999	20.164981583035416
3.6034299999999999	20.150155794230219
3.60608	20.135308261694473
3.6087400000000001	20.12038379015376
3.6113900000000001	20.105495538997552
3.6140400000000001	20.090588374675544
3.6166900000000002	20.075663224506187
3.6193499999999998	20.06066459134404
3.6219999999999999	20.045706161846486
3.6246499999999999	20.030732486230651
3.6273	20.015744461236569
3.62995	20.000742975872495
3.6326100000000001	19.985672231817201
3.6352600000000002	19.970646419114622
3.6379100000000002	1.#QNAN
3.6405599999999998	20.035868900733387
3.6432199999999999	20.021823159222137
3.6458699999999999	20.007797717518113
3.64852	19.993740833241148
3.65117	19.979653500722947
3.6538200000000001	19.965536709840663
3.6564800000000002	19.95133801488133
3.6591300000000002	19.937165156703362
3.6617799999999998	19.922965785769087
3.6644299999999999	19.908740873156745
3.6670799999999999	1.#QNAN
3.66974	19.880164378203769
3.67239	19.86586853359897
3.6750400000000001	19.851550985035544
3.6776900000000001	19.837212678048417
3.6803499999999998	19.82280033485598
3.6829999999999998	19.808423256601291
3.6856499999999999	19.794028227526109
3.6882999999999999	19.779616171211295
3.69095	1.#QNAN
3.6936100000000001	19.750690111820091
3.6962600000000001	19.736232405874695
3.6989100000000001	19.721761312849857
3.7015600000000002	19.707277727162896
3.7042199999999998	19.692727817499247
3.7068699999999999	19.678221866705822
3.7095199999999999	19.663706073273609
3.71217	19.649181307027661
3.71482	19.634648431489616
3.7174800000000001	19.620053422753465
3.7201300000000002	19.605506871124707
3.7227800000000002	19.590954765517449
3.7254299999999998	19.57639794361851
3.7280899999999999	19.561782284143234
3.7307399999999999	19.547218506296012
3.73339	19.532652488516234
3.73604	19.518085041776775
3.7386900000000001	1.#QNAN
3.7413500000000002	19.488894099400209
3.7440000000000002	19.474327168531879
3.7466499999999998	19.459761987101889
3.7492999999999999	19.44519933161579
3.7519499999999999	19.430639971562886
3.75461	19.41602975235169
3.75726	19.401479282959578
3.7599100000000001	19.386934377799498
3.7625600000000001	19.372395777895079
3.7652199999999998	19.357809395249028
3.7678699999999998	19.343285630786529
3.7705199999999999	19.32877035405788
3.7731699999999999	19.3142642770989
3.77582	19.299768104635682
3.7784800000000001	19.285227892483832
3.7811300000000001	19.270753657738926
3.7837800000000001	19.256291400133879
3.7864300000000002	19.241841794897997
3.7890899999999998	19.227351059361069
